/home/chengeke/Documents/phdCode/opencvphdpamunhanga/frontend/AngularJSRestful/src/main/java/FirstExample2.java
/home/chengeke/Documents/phdCode/opencvphdpamunhanga/frontend/AngularJSRestful/src/main/java/dao/Database.java
/home/chengeke/Documents/phdCode/opencvphdpamunhanga/frontend/AngularJSRestful/src/main/java/FirstExample.java
/home/chengeke/Documents/phdCode/opencvphdpamunhanga/frontend/AngularJSRestful/src/main/java/todo/resource/TodoResource.java
/home/chengeke/Documents/phdCode/opencvphdpamunhanga/frontend/AngularJSRestful/src/main/java/dao/AccessManager.java
/home/chengeke/Documents/phdCode/opencvphdpamunhanga/frontend/AngularJSRestful/src/main/java/dao/Access.java
/home/chengeke/Documents/phdCode/opencvphdpamunhanga/frontend/AngularJSRestful/src/main/java/todo/model/Todo.java
/home/chengeke/Documents/phdCode/opencvphdpamunhanga/frontend/AngularJSRestful/src/main/java/dto/Experiment.java
/home/chengeke/Documents/phdCode/opencvphdpamunhanga/frontend/AngularJSRestful/src/main/java/todo/dao/TodoDao.java
